<svg width="1024" height="1024" viewBox="0 0 1024 1024" fill="none" xmlns="http://www.w3.org/2000/svg">
<g clip-path="url(#clip0)">
<path d="M227.334 551.956L683.027 1007.64C693.567 1018.19 707.636 1024 722.638 1024C737.64 1024 751.71 1018.19 762.249 1007.64L795.808 974.091C817.645 952.229 817.645 916.697 795.808 894.869L413.151 512.212L796.232 129.131C806.772 118.583 812.591 104.522 812.591 89.5285C812.591 74.5183 806.772 60.4571 796.232 49.9009L762.674 16.3589C752.126 5.81095 738.065 3.95074e-05 723.063 3.81958e-05C708.061 3.68843e-05 693.991 5.81095 683.452 16.3589L227.334 472.46C216.77 483.041 210.967 497.169 211 512.187C210.967 527.264 216.77 541.384 227.334 551.956Z" fill="black"/>
</g>
<defs>
<clipPath id="clip0">
<rect width="1024" height="1024" fill="white"/>
</clipPath>
</defs>
</svg>
