<svg width="1024" height="1024" viewBox="0 0 1024 1024" fill="none" xmlns="http://www.w3.org/2000/svg">
<path d="M918.844 137.656L875.086 99.125L918.844 60.6016C925.648 54.6016 927.977 45.25 924.781 36.7656C921.57 28.2734 913.641 22.7891 904.57 22.7891H723.492V15.0078C723.492 6.71875 716.773 0 708.484 0C700.195 0 693.477 6.71875 693.477 15.0078V217.414L570.219 284.344C569.539 278.922 567.914 273.594 565.344 268.578L547.977 234.672C536.055 211.391 507.414 202.164 484.148 214.078L470.719 220.953C459.437 226.734 451.086 236.547 447.195 248.609C443.305 260.664 444.344 273.516 450.125 284.789L467.492 318.703C471.547 326.617 477.539 332.883 484.586 337.273C475.367 349.687 470.992 364.953 466.492 380.812L463.258 392.266C461 400.242 465.641 408.539 473.617 410.789C474.977 411.18 476.352 411.359 477.703 411.359C484.25 411.359 490.266 407.047 492.141 400.43L495.375 389C501.953 365.805 505.992 353.383 518.852 346.398L541.906 333.875L544.75 332.422C545.695 331.937 546.578 331.391 547.477 330.852L711.789 241.625C710.75 262.164 699.695 281.57 681.492 292.625L574.641 357.547C574.516 357.617 574.391 357.688 574.273 357.766L541.016 377.969C533.937 382.273 531.68 391.508 535.984 398.594C540.039 405.273 548.477 407.648 555.359 404.297L530.125 480.578L511.68 488.141L461.523 508.695L475.977 457.602C478.227 449.625 473.594 441.328 465.617 439.07C457.633 436.805 449.344 441.453 447.086 449.43L424.25 530.188C423.953 531.227 423.758 532.367 423.711 533.453L417.734 643.234C417.555 647.422 418.445 655.336 416.508 659.422L350.133 799.062H301.898C273.641 799.062 250.656 822.047 250.656 850.297V893.617C244.187 890.656 237.008 889 229.438 889H106.945C78.6953 889 55.7109 911.977 55.7109 940.234V993.984H19.6797C11.3906 993.984 4.67188 1000.7 4.67188 1008.99C4.67188 1017.28 11.3906 1024 19.6797 1024H904.555C912.844 1024 919.562 1017.28 919.562 1008.99C919.562 1000.7 912.844 993.984 904.555 993.984H865.523V607.148C865.523 578.898 842.539 555.914 814.289 555.914H723.492V294.094C740.133 271.539 746.297 241.977 738.57 213.883C737.359 209.469 734.195 205.844 729.977 204.055C727.906 203.172 725.687 202.781 723.492 202.867V175.469H904.562C913.641 175.469 921.57 169.984 924.773 161.5C927.977 153.016 925.648 143.656 918.844 137.656V137.656ZM475.766 257.828C477.195 253.398 480.258 249.789 484.398 247.672L497.828 240.797C500.359 239.5 503.062 238.883 505.734 238.883C512.062 238.883 518.18 242.344 521.258 248.352L538.633 282.266C542.687 290.188 540.062 299.789 532.852 304.641L527.961 307.289L517.641 312.578C509.102 316.953 498.586 313.563 494.211 305.016L476.836 271.109C474.719 266.969 474.336 262.25 475.766 257.828V257.828ZM445.609 803.68C440.508 801.352 434.961 799.828 429.133 799.289L445.609 777.406V803.68ZM516.867 682.75C524.086 674.102 526.078 664 527.688 655.859C528.094 653.922 535.5 613.469 535.5 613.469C535.5 613.469 542.508 617.836 543.242 618.148C543.75 618.375 544.109 618.875 544.164 619.461L552.328 702.453H502.031L516.867 682.75ZM605.617 599.914L592.945 702.383H582.484L574.039 616.523C572.961 605.523 566.227 595.922 556.359 591.148L541.266 581.578L551.32 525.852C551.32 525.852 593.68 576.172 594.664 577.453C603.43 588.852 606.43 593.414 605.617 599.914ZM443.508 672.547C446.539 663.422 447.945 654.133 447.711 644.688L453.164 544.562L522.578 516.117L509.961 586.008C509.922 586.195 509.883 586.391 509.859 586.578L499.422 644.367C498.062 650.352 496.875 659.43 493.141 664.359L391.727 799.062H383.367L443.508 672.547ZM85.7266 940.227C85.7266 928.531 95.2422 919.016 106.945 919.016H229.438C241.141 919.016 250.664 928.531 250.664 940.227V993.984H85.7266V940.227ZM280.672 940.227V850.297C280.672 838.594 290.195 829.078 301.898 829.078H424.391C436.094 829.078 445.609 838.594 445.609 850.297V993.984H280.68V940.227H280.672ZM835.508 607.148V993.984H670.578V904C670.578 895.711 663.859 888.992 655.57 888.992C647.273 888.992 640.555 895.711 640.555 904V993.984H475.625V753.68C475.625 741.984 485.141 732.469 496.844 732.469H619.336C631.039 732.469 640.555 741.984 640.555 753.68V828.914C640.555 837.203 647.273 843.922 655.562 843.922C663.859 843.922 670.57 837.203 670.57 828.914V607.148C670.57 595.445 680.094 585.93 691.797 585.93H708.328C708.375 585.93 708.43 585.938 708.484 585.938C708.531 585.938 708.586 585.93 708.633 585.93H814.281C825.984 585.93 835.508 595.453 835.508 607.148V607.148ZM691.797 555.914C663.547 555.914 640.562 578.898 640.562 607.148V707.07C635.188 704.617 629.328 703.062 623.164 702.609L635.406 603.609C637.812 584.312 627.969 571.523 618.453 559.148C617.445 557.836 559.109 488.57 559.109 488.57L594.898 380.367L693.477 320.477V555.914H691.797ZM723.492 145.445V52.8125H882.266L848.07 82.9219C843.414 87.0234 840.742 92.9297 840.742 99.1328C840.742 105.336 843.414 111.242 848.07 115.344L882.266 145.453H723.492V145.445Z" fill="black"/>
</svg>
