<svg width="1024" height="1024" viewBox="0 0 1024 1024" fill="none" xmlns="http://www.w3.org/2000/svg">
<path d="M992 112H912V64C912 59.7565 910.314 55.6869 907.314 52.6863C904.313 49.6857 900.243 48 896 48H800C795.757 48 791.687 49.6857 788.686 52.6863C785.686 55.6869 784 59.7565 784 64V112H240V64C240 59.7565 238.314 55.6869 235.314 52.6863C232.313 49.6857 228.243 48 224 48H128C123.757 48 119.687 49.6857 116.686 52.6863C113.686 55.6869 112 59.7565 112 64V112H32C27.7565 112 23.6869 113.686 20.6863 116.686C17.6857 119.687 16 123.757 16 128V960C16 964.243 17.6857 968.313 20.6863 971.314C23.6869 974.314 27.7565 976 32 976H896C900.243 975.999 904.312 974.313 907.312 971.312L1003.31 875.312C1006.31 872.312 1008 868.243 1008 864V128C1008 123.757 1006.31 119.687 1003.31 116.686C1000.31 113.686 996.243 112 992 112ZM816 80H880V208H816V80ZM144 80H208V208H144V80ZM112 144V224C112 228.243 113.686 232.313 116.686 235.314C119.687 238.314 123.757 240 128 240H224C228.243 240 232.313 238.314 235.314 235.314C238.314 232.313 240 228.243 240 224V144H784V224C784 228.243 785.686 232.313 788.686 235.314C791.687 238.314 795.757 240 800 240H896C900.243 240 904.313 238.314 907.314 235.314C910.314 232.313 912 228.243 912 224V144H976V304H48V144H112ZM48 336H976V848H896C891.757 848 887.687 849.686 884.686 852.686C881.686 855.687 880 859.757 880 864V944H48V336ZM953.376 880L912 921.376V880H953.376Z" fill="black"/>
<path d="M912 448H944V384C944 379.757 942.314 375.687 939.314 372.686C936.313 369.686 932.243 368 928 368H864V400H912V448Z" fill="black"/>
<path d="M80 384V448H112V400H160V368H96C91.7565 368 87.6869 369.686 84.6863 372.686C81.6857 375.687 80 379.757 80 384Z" fill="black"/>
<path d="M112 832H80V896C80 900.243 81.6857 904.313 84.6863 907.314C87.6869 910.314 91.7565 912 96 912H160V880H112V832Z" fill="black"/>
<path d="M912 480H944V512H912V480Z" fill="black"/>
<path d="M512 400C464.532 400 418.131 414.076 378.663 440.447C339.195 466.819 308.434 504.302 290.269 548.156C272.104 592.01 267.351 640.266 276.612 686.822C285.872 733.377 308.73 776.141 342.294 809.706C375.859 843.27 418.623 866.128 465.178 875.388C511.734 884.649 559.99 879.896 603.844 861.731C647.698 843.566 685.181 812.805 711.553 773.337C737.924 733.869 752 687.468 752 640C751.928 576.37 726.619 515.367 681.626 470.374C636.633 425.381 575.63 400.072 512 400V400ZM512 848C470.861 848 430.647 835.801 396.441 812.946C362.236 790.09 335.576 757.605 319.833 719.598C304.09 681.591 299.971 639.769 307.997 599.421C316.022 559.073 335.833 522.011 364.922 492.922C394.011 463.832 431.073 444.022 471.421 435.997C511.769 427.971 553.591 432.09 591.598 447.833C629.605 463.576 662.09 490.236 684.946 524.441C707.801 558.647 720 598.861 720 640C719.936 695.146 698.002 748.014 659.008 787.008C620.014 826.002 567.145 847.936 512 848V848Z" fill="black"/>
<path d="M567.666 560.284L526.946 473.212C525.658 470.454 523.609 468.121 521.042 466.487C518.474 464.853 515.494 463.984 512.45 463.984C509.406 463.984 506.426 464.853 503.858 466.487C501.29 468.121 499.242 470.454 497.954 473.212L457.218 560.284L366.466 574.188C363.561 574.633 360.834 575.87 358.586 577.763C356.337 579.657 354.654 582.132 353.72 584.919C352.786 587.706 352.638 590.697 353.291 593.562C353.945 596.428 355.376 599.058 357.426 601.164L423.586 669.18L408.002 765.42C407.519 768.384 407.879 771.424 409.043 774.193C410.206 776.962 412.125 779.347 414.58 781.077C417.036 782.806 419.928 783.809 422.927 783.972C425.926 784.134 428.91 783.45 431.538 781.996L512.514 737.1L593.474 781.996C596.102 783.454 599.088 784.143 602.09 783.982C605.091 783.822 607.987 782.819 610.445 781.089C612.903 779.359 614.824 776.972 615.988 774.201C617.152 771.429 617.511 768.386 617.026 765.42L601.378 669.18L667.538 601.164C669.588 599.057 671.019 596.425 671.672 593.559C672.325 590.692 672.175 587.701 671.239 584.913C670.304 582.126 668.618 579.65 666.367 577.758C664.117 575.866 661.388 574.631 658.482 574.188L567.666 560.284ZM572.802 652.636C571.06 654.428 569.761 656.603 569.011 658.987C568.261 661.371 568.08 663.897 568.482 666.364L580.13 738.012L520.258 704.812C517.883 703.495 515.213 702.804 512.498 702.804C509.783 702.804 507.112 703.495 504.738 704.812L444.802 738.012L456.45 666.364C456.852 663.897 456.671 661.371 455.921 658.987C455.17 656.603 453.872 654.428 452.13 652.636L402.018 601.116L470.514 590.62C473.113 590.22 475.573 589.187 477.677 587.61C479.782 586.033 481.465 583.962 482.578 581.58L512.45 517.74L542.322 581.58C543.435 583.962 545.118 586.033 547.222 587.61C549.327 589.187 551.787 590.22 554.386 590.62L622.882 601.116L572.802 652.636Z" fill="black"/>
</svg>
