<svg width="1024" height="1024" viewBox="0 0 1024 1024" fill="none" xmlns="http://www.w3.org/2000/svg">
<path d="M680.891 491.929L468.26 337.363C460.457 331.706 450.098 330.854 441.545 335.25C432.924 339.612 427.54 348.471 427.54 358.046V667.076C427.54 676.754 432.924 685.579 441.545 689.941C445.191 691.781 449.178 692.701 453.199 692.701C458.447 692.701 463.762 691.031 468.26 687.726L680.891 533.296C687.604 528.355 691.522 520.722 691.522 512.612C691.556 504.366 687.535 496.767 680.891 491.929Z" fill="black"/>
<path d="M512.017 0.00390625C229.191 0.00390625 0 229.195 0 512.021C0 794.745 229.191 1023.87 512.017 1023.87C794.775 1023.87 1024 794.71 1024 512.021C1024.03 229.195 794.775 0.00390625 512.017 0.00390625ZM512.017 938.441C276.488 938.441 85.5293 747.584 85.5293 512.021C85.5293 276.56 276.488 85.465 512.017 85.465C747.512 85.465 938.437 276.526 938.437 512.021C938.471 747.584 747.512 938.441 512.017 938.441Z" fill="black"/>
</svg>
